<svg xmlns="http://www.w3.org/2000/svg" width="139.444" height="96.46" viewBox="0 0 139.444 96.46">
  <path id="Path_4" data-name="Path 4" d="M48.277-123.508a36.125,36.125,0,0,0-10.9,7.332A85.57,85.57,0,0,0,14.281-82.27c-2.772,7.725-4.2,15.818-3.042,23.515A29.152,29.152,0,0,0,22.967-39.061c5.469,3.865,12.495,5.842,19.641,6.878,23.6,3.422,49.96-3.272,69.587-17.673,13.365-9.807,23.8-23.508,25.918-38.084s-5.277-29.67-19.83-35.423c-9.036-3.572-19.828-3.4-30.116-1.707a113.068,113.068,0,0,0-48.657,20.6C25.458-93.992,14.458-80.287,8.151-65.4,4.638-57.1,2.57-48.517.7-39.958" transform="translate(0.196 126.988)" fill="none" stroke="#000" stroke-linecap="round" stroke-linejoin="round" stroke-width="1.5"/>
</svg>
