<svg xmlns="http://www.w3.org/2000/svg" width="184.142" height="188.599" viewBox="0 0 184.142 188.599">
  <path id="Path_10" data-name="Path 10" d="M201.07,319.571l1.575,1.874-12.092,4.5-1.452-1.727,6.509-11.139,1.575,1.874-4.528,7.75Zm-.564,16.324-1.743-1.539,8.043-9.106,1.743,1.54Zm9.853,4.65,4.215,2.814-1.281,1.92-6.149-4.1,6.745-10.1,1.934,1.291Zm12.629,7.2,4.606,2.114-.963,2.1-6.721-3.084,5.067-11.043,2.114.97Zm13.873,5.066-1.454,2.152-2.353-.609,7.248-10.675,2.151.557,1.154,12.851-2.353-.61-.227-2.587Zm3.624-5.409-2.3,3.475,2.621.679Zm15.285,4.161,4.57.325-.186,2.614a4.583,4.583,0,0,1-9.14-.65l.248-3.5a4.208,4.208,0,0,1,4.889-4.159c2.735.194,4.249,1.9,4.269,4.323l-2.337-.166a2.277,2.277,0,0,0-4.5.167l-.248,3.5a2.257,2.257,0,0,0,4.5.32l.022-.312-2.251-.16Zm13.982-.455,5.042-.514.234,2.3-5.042.514.271,2.659,5.042-.515.234,2.3-7.356.75-1.233-12.088,7.356-.75.234,2.3-5.042.514Zm19.774-5.1-.012-.032a3.732,3.732,0,0,1,2.3-5.145c2.28-.89,4.246-.055,5.016,1.917a5.174,5.174,0,0,1-.364,4.316l-1.632,3.6,4.414-1.723.751,1.924-7.438,2.9-.751-1.924,2.647-5.822a3.072,3.072,0,0,0,.268-2.415,1.547,1.547,0,0,0-2.159-.853,1.6,1.6,0,0,0-.963,2.258l.063.162Zm13.41-5.7c-1.278-2.127-.9-4.259,1.3-5.581a3.664,3.664,0,0,1,5.275,1.062l.009.015-1.949,1.171-.009-.015a1.7,1.7,0,0,0-2.817,1.915l.625,1.041a3.082,3.082,0,0,1,1.27-1.391,3.668,3.668,0,0,1,5.379,1.4l.018.03a3.992,3.992,0,1,1-6.852,4.1Zm4.314,2.732a1.7,1.7,0,1,0,2.916-1.752l-.188-.313a1.592,1.592,0,0,0-2.36-.627,1.573,1.573,0,0,0-.59,2.319Zm7.944-10.769c-1.62-1.88-1.608-4.045.338-5.722s4.088-1.37,5.709.509l2.788,3.234c1.62,1.88,1.608,4.044-.339,5.722s-4.088,1.37-5.709-.509Zm4.119-3.94a1.7,1.7,0,1,0-2.576,2.221l3.172,3.68a1.7,1.7,0,1,0,2.576-2.221Zm6.406-6.01-.027-.022a3.732,3.732,0,0,1-.491-5.612c1.561-1.885,3.685-2.11,5.316-.759a5.175,5.175,0,0,1,1.777,3.951l.321,3.939,3.022-3.65,1.591,1.317-5.092,6.15-1.591-1.317-.513-6.375a3.071,3.071,0,0,0-.938-2.242,1.548,1.548,0,0,0-2.3.3,1.606,1.606,0,0,0,.254,2.442l.134.111ZM199.005,211.649l-1.391,1.864-8.973-1.063,6.275,4.68L193.526,219l-9.739-7.264,1.391-1.864,8.972,1.063-6.275-4.68,1.39-1.864Zm7.9-7.818a4.208,4.208,0,0,1-6.415-.233l-2.363-2.59a4.583,4.583,0,0,1,6.771-6.176l2.363,2.59A4.208,4.208,0,0,1,206.908,203.832Zm-3.726-7.432a2.258,2.258,0,0,0-3.334,3.041l2.363,2.59a2.257,2.257,0,0,0,3.334-3.041Zm11.605-5.187,2.626,4.253-1.979,1.222-6.381-10.339,4.357-2.689c2.1-1.294,3.993-.833,5.142,1.028a3.254,3.254,0,0,1-.417,4.315l5.259,2.771-2.275,1.4L216,190.465Zm-.121-5.615-2.422,1.495,1.358,2.2,2.422-1.5a1.3,1.3,0,1,0-1.358-2.2Zm14.939-7.256,3.6,9.16-2.23.875-3.6-9.16-3.15,1.237-.844-2.149,8.53-3.349.843,2.149Zm16.722-6.914,2.284-.441,2.3,11.93-2.284.441-.943-4.891-4.432.855.944,4.891-2.284.441-2.3-11.929,2.284-.441.921,4.772,4.431-.855Zm11.647-1.348,5.033.082c2.465.04,3.813,1.451,3.78,3.551a2.976,2.976,0,0,1-1.134,2.429A3.315,3.315,0,0,1,267,178.819c-.035,2.152-1.412,3.536-3.911,3.5l-5.311-.086Zm5.22,9.928c.955.016,1.466-.462,1.48-1.313a1.285,1.285,0,0,0-1.436-1.36l-3.054-.05-.044,2.673Zm-.172-7.538-2.759-.045-.042,2.551,2.76.045c.885.014,1.465-.428,1.479-1.261C264.473,172.91,263.908,172.484,263.022,172.47ZM277.4,183.91a4.208,4.208,0,0,1-3.662-5.272l.654-3.444a4.583,4.583,0,0,1,9,1.711l-.655,3.444A4.208,4.208,0,0,1,277.4,183.91Zm3.71-7.44a2.258,2.258,0,0,0-4.434-.842l-.654,3.445a2.257,2.257,0,0,0,4.433.842Zm19.973,2.007-2.892,7.274a4.583,4.583,0,0,1-8.516-3.387l2.892-7.274,2.162.859-2.893,7.274a2.258,2.258,0,0,0,4.193,1.668l2.893-7.274Zm6.164,11.449-2.694,4.212-1.959-1.253,6.547-10.237,4.314,2.759c2.076,1.328,2.484,3.237,1.305,5.079a3.256,3.256,0,0,1-4.07,1.5l-.215,5.942-2.252-1.44.223-5.792Zm5.008-2.546-2.4-1.534-1.393,2.179,2.4,1.534a1.3,1.3,0,1,0,1.394-2.179ZM321.837,208l-1.687-1.6,2.121-8.785-5.393,5.675-1.686-1.6,8.37-8.809,1.686,1.6-2.121,8.785,5.393-5.675,1.687,1.6Zm11.766,2.875,2.979,4.1-1.867,1.357-2.978-4.1-2.163,1.571,2.979,4.1-1.867,1.357-4.345-5.984,9.829-7.141,4.345,5.983-1.867,1.357-2.979-4.1Zm-71.58,98.972-2.853,2.87,2.853,2.87,2.887-2.87Zm-91.313-28.4-.63-10.283h2.328l5.141,10.671A14.882,14.882,0,0,0,183.9,283.3c4.705,0,9.12-2.086,9.12-6.5,0-4.9-5-6.6-10.72-8.392-6.209-1.843-11.205-3.978-11.205-10.089,0-5.288,5.239-8.683,12.176-8.683a50.224,50.224,0,0,1,9.9,1.406l1.552,9.41-3.3.048-4.8-9.556a15.782,15.782,0,0,0-4.123-.534c-4.075,0-8,2.377-8,6.063,0,4.414,4.511,5.967,10.187,7.567,5.967,1.892,11.545,4.269,11.545,10.914,0,5.967-5.87,9.071-12.515,9.071C179.683,284.026,173.862,283.1,170.709,281.455Zm52.4.679,3.492,1.552v.146h-8.391v-6.5a8.6,8.6,0,0,1-8.246,6.742c-5.239,0-7.81-3.444-7.81-9.168V261.276l-3.493-1.552v-.146h8.392v14.94c0,4.026,1.019,6.839,4.948,6.839,4.22,0,6.209-4.559,6.209-7.858V261.276l-3.493-1.552v-.146h8.392Zm5.966,1.552,3.492-1.552V251.574l-3.492-1.552v-.145h8.392v32.257l3.493,1.552v.146H229.074Zm14.358,0,3.493-1.552V251.574l-3.493-1.552v-.145h8.392v32.257l3.493,1.552v.146H243.432Zm14.358,0,3.493-1.552V261.276l-3.493-1.552v-.146h8.391v22.556l3.493,1.552v.146H257.79Zm3.1-30.171a2.813,2.813,0,1,1,2.813,2.814A2.816,2.816,0,0,1,260.894,253.514Zm9.126,6.063H282v.146l-3.4,1.5,8.2,16.444,6.985-14.94-5.045-3.056v-.1H299.61v.1l-4.8,3.056-9.944,21.1h-.194l-11.205-22.6-3.444-1.5Zm34.821,0h9.216a6.155,6.155,0,0,1,6.257,5.966v16.589l3.492,1.552v.146h-8.2v-7.179c-.776,3.784-4.317,7.421-8.537,7.421-4.269,0-7.324-2.231-7.324-6.257,0-3.3,2.231-5.336,4.705-6.306l7.616-2.959c2.232-.873,3.638-2.376,3.638-4.462,0-2.183-1.746-3.832-4.317-3.832h-4.123l-2.474,6.209h-5.287Zm7.47,9.653-4.123,1.6c-2.668,1.019-3.929,2.959-3.929,5.044,0,3.2,2.134,4.415,4.9,4.415a6,6,0,0,0,6.258-6.306V267.1A7.21,7.21,0,0,1,312.311,269.231Zm13.97,14.455,3.492-1.552V261.276l-3.492-1.552v-.146h8.391v6.5a8.6,8.6,0,0,1,8.246-6.742c5.238,0,7.81,3.444,7.81,9.168v13.63l3.493,1.552v.146H342.336v-.146l3.493-1.552V268.891c0-4.026-1.018-6.839-4.948-6.839-4.22,0-6.209,4.559-6.209,7.858v12.224l3.493,1.552v.146H326.281ZM248.126,220.4v9.841h-2.395V220.4h-3.384v-2.308h9.164V220.4Zm16.587-2.308h2.325v12.149h-2.325v-4.982H260.2v4.982h-2.326V218.092H260.2v4.86h4.512Zm12.172,4.86h5.068v2.308h-5.068v2.673h5.068v2.308h-7.394V218.092h7.394V220.4h-5.068Z" transform="translate(-170.079 -170.079)" fill="#fff"/>
</svg>
