<svg xmlns="http://www.w3.org/2000/svg" width="170" height="41.666" viewBox="0 0 170 41.666">
  <g id="Group_1" data-name="Group 1" transform="translate(-72.688 -77.279)">
    <path id="Path_1" data-name="Path 1" d="M77.115,94.267H73.908V77.518h3.3l6.125,10.994V77.518h3.206V94.267h-3.3L77.115,83.273Zm19.182.239c-4.019,0-6.316-2.488-6.316-6.2V83.476c0-3.709,2.3-6.2,6.316-6.2s6.316,2.489,6.316,6.2v4.833C102.613,92.018,100.316,94.506,96.3,94.506Zm3.11-11.03a3.112,3.112,0,0,0-6.221,0v4.833a3.112,3.112,0,0,0,6.221,0Zm11.812,3.9h-1.962v6.891h-3.206V77.518h7.058c3.4,0,5.288,1.914,5.288,4.929a4.487,4.487,0,0,1-3.613,4.761l4.163,7.058h-3.685Zm-1.962-3.11h3.923c1.22,0,2.01-.622,2.01-1.771,0-1.172-.79-1.794-2.01-1.794h-3.923Zm16.4,10h3.3V80.7h4.666V77.518H121V80.7h4.666Zm14.4-6.867h6.221v6.867h3.206V77.518h-3.206v6.7H140.06v-6.7h-3.207V94.267h3.207Zm20.187,6.867h-7.322V77.518h6.939c3.4,0,5.288,1.914,5.288,4.809a4.1,4.1,0,0,1-1.508,3.374,4.57,4.57,0,0,1,1.914,3.661C165.559,92.328,163.692,94.267,160.247,94.267Zm-4.115-10.049h3.8c1.22,0,2.01-.622,2.01-1.77,0-1.173-.789-1.747-2.01-1.747h-3.8Zm0,6.867h4.211c1.316,0,2.01-.67,2.01-1.843a1.771,1.771,0,0,0-2.01-1.842h-4.211Zm25.075-7.609v4.833c0,3.708-2.3,6.2-6.317,6.2s-6.316-2.488-6.316-6.2V83.476c0-3.709,2.3-6.2,6.316-6.2S181.207,79.768,181.207,83.476Zm-3.206,0a3.112,3.112,0,0,0-6.221,0v4.833a3.112,3.112,0,0,0,6.221,0Zm15.857,4.833a3.112,3.112,0,0,1-6.221,0V77.518h-3.206V88.309c0,3.708,2.3,6.2,6.316,6.2s6.316-2.488,6.316-6.2V77.518h-3.206Zm15.378-1.1,4.163,7.058h-3.684l-4.044-6.891h-1.962v6.891H200.5V77.518h7.058c3.4,0,5.288,1.914,5.288,4.929A4.487,4.487,0,0,1,209.236,87.208Zm.407-4.713c0-1.172-.789-1.794-2.01-1.794h-3.924v3.565h3.924C208.853,84.265,209.643,83.644,209.643,82.495Zm16.208,6.017-6.125-10.994h-3.3V94.267h3.206V83.273l6.125,10.994h3.3V77.518h-3.206ZM242.688,80.7V77.518H232.5V94.267h10.193V91.085H235.7V87.4h6.987V84.218H235.7V80.7ZM90.773,118.706h3.206V101.957H90.773Zm9.851-16.748H97.417v16.748H107.61V115.5h-6.986Zm45.945,10.36h3.11v.431a3.11,3.11,0,0,1-6.217,0v-4.833a3.132,3.132,0,0,1,6.162-.67h3.239c-.263-3.335-2.518-5.527-6.29-5.527-4.02,0-6.316,2.489-6.316,6.2v4.833c0,3.707,2.3,6.2,6.313,6.2h0c4.017,0,6.312-2.489,6.312-6.2v-3.613h-6.316Zm-32.742-10.36h-3.207v16.748h10.193V115.5h-6.986Zm42.5,16.748h10.193v-3.182H159.53v-3.685h6.986v-3.182H159.53V105.14h6.986v-3.182H156.324Zm-23.669-16.748,5.981,16.748h-3.349l-1.2-3.374h-5.933l-1.2,3.374h-3.35l5.981-16.748Zm.335,10.336-1.866-5.431-1.866,5.431Zm-52.766,1.316-4.163-11.652H72.688l5.981,16.748H81.78l5.982-16.748H84.388Z" fill="#1d1d1b"/>
  </g>
</svg>
